{
    "period": 24,
    "startTime": "12:00 AM",
    "backendURL": "http://backend/api/node/content",
    "maxSourceTries": 100,
    "timePath": "/var/aggregator/times.json",
    "hosts": [
        {
            "name": "westernToday",
            "url": "https://westerntodaytest.wwu.edu/api/content?"
        }
    ]
}
